Access EMODnet Web Feature Service data through R • EMODnetWFS
…
wfs_bath$getUrl()
#> [1] "https://ows.emodnet-bathymetry.eu/wfs"

Get WFS Layer info

You can get metadata about the layers available from a service. The default service is seabed_habitats_individual_habitat_map_and_model_datasets.

emodnet_get_wfs_info()
#> √ WFS client created succesfully
#> i Service: 'https://ows.emodnet-seabedhabitats.eu/emodnet_open_maplibrary/wfs'
#> i Version: '2.0.0'
#> # A tibble: 850 x 9
#>    data_source service_name service_url layer_namespace layer_name title
#>    <chr>       <chr>        <chr>       <chr>           <chr>      <chr>
#>  1 emodnet_wfs seabed_habi~ https://ow~ emodnet_open_m~ be000225   BE00~
#>  2 emodnet_wfs seabed_habi~ https://ow~ emodnet_open_m~ be000226   BE00~
#>  3 emodnet_wfs seabed_habi~ https://ow~ emodnet_open_m~ be000227   BE00~
#>  4 emodnet_wfs seabed_habi~ https://ow~ emodnet_open_m~ be000228   BE00~
#>  5 emodnet_wfs seabed_habi~ https://ow~ emodnet_open_m~ dk004005   DK00~
#>  6 emodnet_wfs seabed_habi~ https://ow~ emodnet_open_m~ fr004015   FR00~
#>  7 emodnet_wfs seabed_habi~ https://ow~ emodnet_open_m~ gb001308   GB00~
#>  8 emodnet_wfs seabed_habi~ https://ow~ emodnet_open_m~ gb001517   GB00~
#>  9 emodnet_wfs seabed_habi~ https://ow~ emodnet_open_m~ gb100299   GB10~
#> 10 emodnet_wfs seabed_habi~ https://ow~ emodnet_open_m~ gb100355   GB10~
#> # ... with 840 more rows, and 3 more variables: abstract <chr>, class <chr>,
#> #   format <chr>
…
