…
wfs_bath$getUrl()
#> [1] "https://ows.emodnet-bathymetry.eu/wfs"
```

## Get WFS Layer info

``` r
emodnet_get_wfs_info()
#> ✔ WFS client created succesfully
#> ℹ Service: 'https://ows.emodnet-seabedhabitats.eu/emodnet_open_maplibrary/wfs'
#> ℹ Version: '2.0.0'
#> # A tibble: 688 x 5
#>    layer_namespace   layer_name title               abstract              class 
#>    <chr>             <chr>      <chr>               <chr>                 <chr> 
#>  1 emodnet_open_map… be000071   BE000071            "Habitat map \"BE000… WFSFe…
#>  2 emodnet_open_map… be000225   BE000225            "Habitat map \"BE000… WFSFe…
#>  3 emodnet_open_map… be000226   BE000226            "Habitat map \"BE000… WFSFe…
#>  4 emodnet_open_map… be000227   BE000227            "Habitat map \"BE000… WFSFe…
#>  5 emodnet_open_map… be000228   BE000228            "Habitat map \"BE000… WFSFe…
#>  6 emodnet_open_map… be000231   BE000231            "Habitat map \"BE000… WFSFe…
#>  7 emodnet_open_map… gb001308   GB001308            "Habitat map \"GB001… WFSFe…
#>  8 emodnet_open_map… nl000065   NL000065            "Habitat map \"NL000… WFSFe…
#>  9 emodnet_open_map… nl000066   NL000066            "Habitat map \"NL000… WFSFe…
#> 10 emodnet_open_map… be000007   [BE000007] Project… "Area West Coast, po… WFSFe…
#> # … with 678 more rows
```
…
