…
EMODnet data covers several disciplines organized in 7 thematic lots: bathymetry, biology, chemistry, geology, human activities, physics, seabed habitats. Some thematic lots organize their data in more than one data source or service. The column `service_name` shows services available, while  `service_url` has the corresponding base url to perform a WFS request. The Seabed portal should have the data we are looking for. A WFS client can be created by passing the corresponding `service_name` to the function `emodnet_init_wfs_client()`. The layers available to this WFS client are consulted with `emodnet_get_wfs_info()`.


``` r
seabed_wfs_client <- emodnet_init_wfs_client(service = "seabed_habitats_general_datasets_and_products")
#> Loading ISO 19139 XML schemas...
#> Loading ISO 19115-3 XML schemas...
#> Loading ISO 19139 codelists...
#> ✔ WFS client created successfully
#> ℹ Service: "https://ows.emodnet-seabedhabitats.eu/geoserver/emodnet_open/wfs"
#> ℹ Version: "2.0.0"

emodnet_get_wfs_info(wfs = seabed_wfs_client)
#> # A tibble: 57 × 9
#> # Rowwise: 
#>    data_source service_name                      service_url layer_name title abstract class format layer_namespace
#>    <chr>       <chr>                             <chr>       <chr>      <chr> <chr>    <chr> <chr>  <chr>          
#>  1 emodnet_wfs seabed_habitats_general_datasets… https://ow… art17_hab… 2013… "Gridde… WFSF… sf     emodnet_open   
#>  2 emodnet_wfs seabed_habitats_general_datasets… https://ow… art17_hab… 2013… "Gridde… WFSF… sf     emodnet_open   
#>  3 emodnet_wfs seabed_habitats_general_datasets… https://ow… art17_hab… 2013… "Gridde… WFSF… sf     emodnet_open   
#>  4 emodnet_wfs seabed_habitats_general_datasets… https://ow… art17_hab… 2013… "Gridde… WFSF… sf     emodnet_open   
#>  5 emodnet_wfs seabed_habitats_general_datasets… https://ow… art17_hab… 2013… "Gridde… WFSF… sf     emodnet_open   
#>  6 emodnet_wfs seabed_habitats_general_datasets… https://ow… art17_hab… 2013… "Gridde… WFSF… sf     emodnet_open   
#>  7 emodnet_wfs seabed_habitats_general_datasets… https://ow… art17_hab… 2013… "Gridde… WFSF… sf     emodnet_open   
#>  8 emodnet_wfs seabed_habitats_general_datasets… https://ow… art17_hab… 2013… "Gridde… WFSF… sf     emodnet_open   
#>  9 emodnet_wfs seabed_habitats_general_datasets… https://ow… carib_eus… 2023… "Output… WFSF… sf     emodnet_open   
#> 10 emodnet_wfs seabed_habitats_general_datasets… https://ow… biogenic_… Biog… "This l… WFSF… sf     emodnet_open   
#> # ℹ 47 more rows
```
…
``` r
mapview(habitats_directive_layers, zcol = "habitat_description", burst = TRUE)
```

<div class="figure">
<img src="emodnet.wfs-unnamed-chunk-6-1.png" alt="Interactive map of layers in the habitat directive"  />
<p class="caption">plot of chunk unnamed-chunk-6</p>
</div>

EMODnet provides also physics, chemistry, biological or bathymetry data. Explore all the layers available with:


``` r
emodnet_get_all_wfs_info()
#> # A tibble: 1,782 × 9
#> # Rowwise: 
#>    data_source service_name service_url                      layer_name title abstract class format layer_namespace
#>    <chr>       <chr>        <chr>                            <chr>      <chr> <chr>    <chr> <chr>  <chr>          
#>  1 emodnet_wfs bathymetry   https://ows.emodnet-bathymetry.… download_… Bath… "Downlo… WFSF… sf     emodnet        
#>  2 emodnet_wfs bathymetry   https://ows.emodnet-bathymetry.… contours   Dept… "Genera… WFSF… sf     emodnet        
#>  3 emodnet_wfs bathymetry   https://ows.emodnet-bathymetry.… hr_bathym… High… "Layer … WFSF… sf     emodnet        
#>  4 emodnet_wfs bathymetry   https://ows.emodnet-bathymetry.… quality_i… Qual… "Repres… WFSF… sf     emodnet        
#>  5 emodnet_wfs bathymetry   https://ows.emodnet-bathymetry.… sea_names  Sea … "Mainta… WFSF… sf     world          
#>  6 emodnet_wfs bathymetry   https://ows.emodnet-bathymetry.… source_re… Sour… "Covera… WFSF… sf     emodnet        
#>  7 emodnet_wfs bathymetry   https://ows.emodnet-bathymetry.… undersea_… unde… ""       WFSF… sf     gebco          
#>  8 emodnet_wfs biology      https://geo.vliz.be/geoserver/E… cti_macro… Comm… "Ocean … WFSF… sf     Emodnetbio     
#>  9 emodnet_wfs biology      https://geo.vliz.be/geoserver/E… mediseh_c… EMOD… "Coral … WFSF… sf     Emodnetbio     
#> 10 emodnet_wfs biology      https://geo.vliz.be/geoserver/E… mediseh_c… EMOD… "Coral … WFSF… sf     Emodnetbio     
#> # ℹ 1,772 more rows
```
…
