…
The column `service_name` shows services available, while  `service_url` has the corresponding base url to perform a WFS request. The Seabed portal should have the data we are looking for. A WFS client can be created by passing the corresponding `service_name` to the function `emodnet_init_wfs_client()`. The layers available to this WFS client are consulted with `emodnet_get_wfs_info()`.


```r
seabed_wfs_client <- emodnet_init_wfs_client(service = "seabed_habitats_general_datasets_and_products")
#> ✔ WFS client created successfully
#> ℹ Service: "https://ows.emodnet-seabedhabitats.eu/geoserver/emodnet_open/wfs"
#> ℹ Version: "2.0.0"

emodnet_get_wfs_info(wfs = seabed_wfs_client)
#> # A tibble: 36 × 9
#> # Rowwise: 
#>    data_source service_name   service_url layer_name title abstract class
#>    <chr>       <chr>          <chr>       <chr>      <chr> <chr>    <chr>
#>  1 emodnet_wfs seabed_habita… https://ow… art17_hab… 2013… "Gridde… WFSF…
#>  2 emodnet_wfs seabed_habita… https://ow… art17_hab… 2013… "Gridde… WFSF…
#>  3 emodnet_wfs seabed_habita… https://ow… art17_hab… 2013… "Gridde… WFSF…
#>  4 emodnet_wfs seabed_habita… https://ow… art17_hab… 2013… "Gridde… WFSF…
#>  5 emodnet_wfs seabed_habita… https://ow… art17_hab… 2013… "Gridde… WFSF…
#>  6 emodnet_wfs seabed_habita… https://ow… art17_hab… 2013… "Gridde… WFSF…
#>  7 emodnet_wfs seabed_habita… https://ow… art17_hab… 2013… "Gridde… WFSF…
#>  8 emodnet_wfs seabed_habita… https://ow… art17_hab… 2013… "Gridde… WFSF…
#>  9 emodnet_wfs seabed_habita… https://ow… art17_hab… 2018… "Gridde… WFSF…
#> 10 emodnet_wfs seabed_habita… https://ow… biogenic_… Biog… "This l… WFSF…
#> # ℹ 26 more rows
#> # ℹ 2 more variables: format <chr>, layer_namespace <chr>
```
…
Furthermore, we can get data from other EMODnet lots and combine them. The Human Activities portal provides the maritime boundaries of the European Union state members. This time we will not initiate a WFS client, but we will use the service name. The WFS client will be generated on the fly.

Same as before, we have a look at the layers available first.


```r
emodnet_get_wfs_info(service = "human_activities")
#> # A tibble: 99 × 9
#> # Rowwise: 
#>    data_source service_name   service_url layer_name title abstract class
#>    <chr>       <chr>          <chr>       <chr>      <chr> <chr>    <chr>
#>  1 emodnet_wfs human_activit… https://ow… activelic… Acti… The dat… WFSF…
#>  2 emodnet_wfs human_activit… https://ow… advisoryc… Advi… This sh… WFSF…
#>  3 emodnet_wfs human_activit… https://ow… aquacultu… Advi… This sh… WFSF…
#>  4 emodnet_wfs human_activit… https://ow… baltic     Advi… This sh… WFSF…
#>  5 emodnet_wfs human_activit… https://ow… blacksea   Advi… This sh… WFSF…
#>  6 emodnet_wfs human_activit… https://ow… longdista… Advi… This sh… WFSF…
#>  7 emodnet_wfs human_activit… https://ow… market     Advi… This sh… WFSF…
#>  8 emodnet_wfs human_activit… https://ow… mediterra… Advi… This sh… WFSF…
#>  9 emodnet_wfs human_activit… https://ow… northsea   Advi… This sh… WFSF…
#> 10 emodnet_wfs human_activit… https://ow… northwest… Advi… This sh… WFSF…
#> # ℹ 89 more rows
#> # ℹ 2 more variables: format <chr>, layer_namespace <chr>
```
…
