Get WFS available layer information — emodnet_get_wfs_info • EMODnetWFS
…
#> ✔ WFS client created succesfully
#> ℹ Service: 'https://www.ifremer.fr/services/wfs/emodnet_chemistry2'
#> ℹ Version: '2.0.0'
emodnet_get_wfs_info(wfs_cml)

#> # A tibble: 21 × 9
#>    data_source service_name  service_url    layer_namespace layer_name  title   
#>    <chr>       <chr>         <chr>          <chr>           <chr>       <chr>   
#>  1 emodnet_wfs chemistry_ma… https://www.i… ms              bl_beaches… Beaches…
#>  2 emodnet_wfs chemistry_ma… https://www.i… ms              bl_tempora… Number …
#>  3 emodnet_wfs chemistry_ma… https://www.i… ms              bl_totalab… Beach L…
#>  4 emodnet_wfs chemistry_ma… https://www.i… ms              bl_materia… Beach L…
#>  5 emodnet_wfs chemistry_ma… https://www.i… ms              bl_cigaret… Beach L…
#>  6 emodnet_wfs chemistry_ma… https://www.i… ms              bl_cigaret… Beach L…
#>  7 emodnet_wfs chemistry_ma… https://www.i… ms              bl_fishing… Beach L…
#>  8 emodnet_wfs chemistry_ma… https://www.i… ms              bl_plastic… Beach L…
#>  9 emodnet_wfs chemistry_ma… https://www.i… ms              bl_beaches… Beaches…
#> 10 emodnet_wfs chemistry_ma… https://www.i… ms              bl_tempora… Number …
#> # … with 11 more rows, and 3 more variables: abstract <chr>, class <chr>,
#> #   format <chr>
…
