Accessing and mapping EMODnet data • emodnet.wfs
…
The column service_name shows services available, while
service_url has the corresponding base url to perform a WFS
request. The Seabed portal should have the data we are looking for. A
WFS client can be created by passing the corresponding
service_name to the function
emodnet_init_wfs_client(). The layers available to this WFS
client are consulted with emodnet_get_wfs_info().

seabed_wfs_client <- emodnet_init_wfs_client(service = "seabed_habitats_general_datasets_and_products")
#> ✔ WFS client created successfully
#> ℹ Service: "https://ows.emodnet-seabedhabitats.eu/geoserver/emodnet_open/wfs"
#> ℹ Version: "2.0.0"

emodnet_get_wfs_info(wfs = seabed_wfs_client)
#> # A tibble: 72 × 9
#> # Rowwise: 
#>    data_source service_name          service_url layer_name title abstract class format
#>    <chr>       <chr>                 <chr>       <chr>      <chr> <chr>    <chr> <chr> 
#>  1 emodnet_wfs seabed_habitats_gene… https://ow… art17_hab… 2013… "Gridde… WFSF… sf    
#>  2 emodnet_wfs seabed_habitats_gene… https://ow… art17_hab… 2013… "Gridde… WFSF… sf    
#>  3 emodnet_wfs seabed_habitats_gene… https://ow… art17_hab… 2013… "Gridde… WFSF… sf    
#>  4 emodnet_wfs seabed_habitats_gene… https://ow… art17_hab… 2013… "Gridde… WFSF… sf    
#>  5 emodnet_wfs seabed_habitats_gene… https://ow… art17_hab… 2013… "Gridde… WFSF… sf    
#>  6 emodnet_wfs seabed_habitats_gene… https://ow… art17_hab… 2013… "Gridde… WFSF… sf    
#>  7 emodnet_wfs seabed_habitats_gene… https://ow… art17_hab… 2013… "Gridde… WFSF… sf    
#>  8 emodnet_wfs seabed_habitats_gene… https://ow… art17_hab… 2013… "Gridde… WFSF… sf    
#>  9 emodnet_wfs seabed_habitats_gene… https://ow… carib_eus… 2023… "Output… WFSF… sf    
#> 10 emodnet_wfs seabed_habitats_gene… https://ow… biogenic_… Biog… "This l… WFSF… sf    
#> # ℹ 62 more rows
#> # ℹ 1 more variable: layer_namespace <chr>
…
plot of chunk unnamed-chunk-6

EMODnet provides also physics, chemistry, biological or bathymetry
data. Explore all the layers available with:

emodnet_get_all_wfs_info()
#> # A tibble: 1,713 × 9
#> # Rowwise: 
#>    data_source service_name service_url          layer_name title abstract class format
#>    <chr>       <chr>        <chr>                <chr>      <chr> <chr>    <chr> <chr> 
#>  1 emodnet_wfs bathymetry   https://ows.emodnet… download_… Bath… "Downlo… WFSF… sf    
#>  2 emodnet_wfs bathymetry   https://ows.emodnet… contours   Dept… "Genera… WFSF… sf    
#>  3 emodnet_wfs bathymetry   https://ows.emodnet… hr_bathym… High… "Layer … WFSF… sf    
#>  4 emodnet_wfs bathymetry   https://ows.emodnet… quality_i… Qual… "Repres… WFSF… sf    
#>  5 emodnet_wfs bathymetry   https://ows.emodnet… sea_names  Sea … "Mainta… WFSF… sf    
#>  6 emodnet_wfs bathymetry   https://ows.emodnet… source_re… Sour… "Covera… WFSF… sf    
#>  7 emodnet_wfs bathymetry   https://ows.emodnet… undersea_… unde… ""       WFSF… sf    
#>  8 emodnet_wfs biology      https://geo.vliz.be… mediseh_c… EMOD… "Coral … WFSF… sf    
#>  9 emodnet_wfs biology      https://geo.vliz.be… mediseh_c… EMOD… "Coral … WFSF… sf    
#> 10 emodnet_wfs biology      https://geo.vliz.be… mediseh_c… EMOD… "Cymodo… WFSF… sf    
#> # ℹ 1,703 more rows
#> # ℹ 1 more variable: layer_namespace <chr>
…
