emodnetwfs • EMODnetWFS
…
The column service_name shows services available, while service_url has the corresponding base url to perform a WFS request. The Seabed portal should have the data we are looking for. A WFS client can be created by passing the corresponding service_name to the function emodnet_init_wfs_client(). The layers available to this WFS client are consulted with emodnet_get_wfs_info().

seabed_wfs_client <- emodnet_init_wfs_client(service = "seabed_habitats_general_datasets_and_products")
#> Loading ISO 19139 XML schemas...
#> Loading ISO 19115 codelists...
#> Loading IANA mime types...
#> No encoding supplied: defaulting to UTF-8.
#> ✔ WFS client created succesfully
#> ℹ Service: 'https://ows.emodnet-seabedhabitats.eu/geoserver/emodnet_open/wfs'
#> ℹ Version: '2.0.0'
emodnet_get_wfs_info(wfs = seabed_wfs_client)
#> # A tibble: 23 × 9
#>    data_source service_name   service_url    layer_namespace layer_name title   
#>    <chr>       <chr>          <chr>          <chr>           <chr>      <chr>   
#>  1 emodnet_wfs seabed_habita… https://ows.e… emodnet_open    art17_hab… 2013 Ar…
#>  2 emodnet_wfs seabed_habita… https://ows.e… emodnet_open    art17_hab… 2013 Ar…
#>  3 emodnet_wfs seabed_habita… https://ows.e… emodnet_open    art17_hab… 2013 Ar…
#>  4 emodnet_wfs seabed_habita… https://ows.e… emodnet_open    art17_hab… 2013 Ar…
#>  5 emodnet_wfs seabed_habita… https://ows.e… emodnet_open    art17_hab… 2013 Ar…
#>  6 emodnet_wfs seabed_habita… https://ows.e… emodnet_open    art17_hab… 2013 Ar…
#>  7 emodnet_wfs seabed_habita… https://ows.e… emodnet_open    art17_hab… 2013 Ar…
#>  8 emodnet_wfs seabed_habita… https://ows.e… emodnet_open    art17_hab… 2013 Ar…
#>  9 emodnet_wfs seabed_habita… https://ows.e… emodnet_open    habitat_p… Collate…
#> 10 emodnet_wfs seabed_habita… https://ows.e… emodnet_open    habitat_p… Collate…
#> # … with 13 more rows, and 3 more variables: abstract <chr>, class <chr>,
#> #   format <chr>
…
# Visualize
map <- mapview(habitats_directive_layers, zcol = "habitat_description", burst = TRUE)

map

Furthermore, we can get data from other EMODnet lots and combine them. The Human Activities portal provides the maritime boundaries of the European Union state members. This time we will not initiate a WFS client, but we will call the service directly. The WFS client will be generated on the fly.

Same as before, we have a look at the layers available first.

emodnet_get_wfs_info(service = "human_activities")
#> ✔ WFS client created succesfully
#> ℹ Service: 'https://ows.emodnet-humanactivities.eu/wfs'
#> ℹ Version: '2.0.0'
#> # A tibble: 101 × 9
#>    data_source service_name  service_url     layer_namespace layer_name title   
#>    <chr>       <chr>         <chr>           <chr>           <chr>      <chr>   
#>  1 emodnet_wfs human_activi… https://ows.em… emodnet         activelic… Active …
#>  2 emodnet_wfs human_activi… https://ows.em… emodnet         aquacultu… Advisor…
#>  3 emodnet_wfs human_activi… https://ows.em… emodnet         baltic     Advisor…
#>  4 emodnet_wfs human_activi… https://ows.em… emodnet         blacksea   Advisor…
#>  5 emodnet_wfs human_activi… https://ows.em… emodnet         longdista… Advisor…
#>  6 emodnet_wfs human_activi… https://ows.em… emodnet         market     Advisor…
#>  7 emodnet_wfs human_activi… https://ows.em… emodnet         mediterra… Advisor…
#>  8 emodnet_wfs human_activi… https://ows.em… emodnet         northsea   Advisor…
#>  9 emodnet_wfs human_activi… https://ows.em… emodnet         northwest… Advisor…
#> 10 emodnet_wfs human_activi… https://ows.em… emodnet         outermost… Advisor…
#> # … with 91 more rows, and 3 more variables: abstract <chr>, class <chr>,
#> #   format <chr>
…
