EQCL feature filtering • EMODnetWFS
…
Inspecting attributes

To develop filters, we first need information about the attributes we can filter on. For example, we might want to know the data type and range or distribution of values of each attributes of a given layer.

Let’s look at existing layers.

emodnet_get_wfs_info(wfs) 
#> # A tibble: 31 × 9
#>    data_source service_name service_url         layer_namespace layer_name title
#>    <chr>       <chr>        <chr>               <chr>           <chr>      <chr>
#>  1 emodnet_wfs biology      https://geo.vliz.b… Emodnetbio      mediseh_c… EMOD…
#>  2 emodnet_wfs biology      https://geo.vliz.b… Emodnetbio      mediseh_c… EMOD…
#>  3 emodnet_wfs biology      https://geo.vliz.b… Emodnetbio      mediseh_c… EMOD…
#>  4 emodnet_wfs biology      https://geo.vliz.b… Emodnetbio      Species_g… EMOD…
#>  5 emodnet_wfs biology      https://geo.vliz.b… Emodnetbio      Species_g… EMOD…
#>  6 emodnet_wfs biology      https://geo.vliz.b… Emodnetbio      Species_g… EMOD…
#>  7 emodnet_wfs biology      https://geo.vliz.b… Emodnetbio      Species_g… EMOD…
#>  8 emodnet_wfs biology      https://geo.vliz.b… Emodnetbio      mediseh_h… EMOD…
#>  9 emodnet_wfs biology      https://geo.vliz.b… Emodnetbio      mediseh_m… EMOD…
#> 10 emodnet_wfs biology      https://geo.vliz.b… Emodnetbio      mediseh_m… EMOD…
#> # … with 21 more rows, and 3 more variables: abstract <chr>, class <chr>,
#> #   format <chr>
…
Layer attributes table

Finally, to enable full inspection and custom processing of attribute data, you can download the full set of attributes as a data.frame, excluding the geometry column. As the geometries are usually the largest column, this is much faster than downloading the full layer and can be useful in developing attribute filtering rules.

attr_tbl <- layer_attributes_tbl(wfs, layer = "mediseh_zostera_m_pnt")

attr_tbl
#> # A tibble: 54 × 3
#>    gml_id                      id country
#>    <chr>                    <int> <chr>  
#>  1 mediseh_zostera_m_pnt.1      0 Spagna 
#>  2 mediseh_zostera_m_pnt.2      0 Spagna 
#>  3 mediseh_zostera_m_pnt.3      0 Spagna 
#>  4 mediseh_zostera_m_pnt.4      0 Spagna 
#>  5 mediseh_zostera_m_pnt.5      0 Spagna 
#>  6 mediseh_zostera_m_pnt.6      0 Spagna 
#>  7 mediseh_zostera_m_pnt.7      0 Spagna 
#>  8 mediseh_zostera_m_pnt.8      0 Francia
#>  9 mediseh_zostera_m_pnt.9      0 Italia 
#> 10 mediseh_zostera_m_pnt.10     0 Italia 
#> # … with 44 more rows
…
